expected_output.vcd
$date
	Sun Sep 22 21:19:39 2024
$end
$version
	Icarus Verilog
$end
$timescale
	1s
$end
$scope module test $end
$var wire 14 ! led [13:0] $end
$var reg 10 " sw [9:0] $end
$var integer 32 # i [31:0] $end
$scope module uut $end
$var wire 10 $ sw [9:0] $end
$var wire 14 % led [13:0] $end
$scope module ones $end
$var wire 4 & A [3:0] $end
$var wire 4 ' B [3:0] $end
$var wire 4 ( realcarries [3:0] $end
$var wire 4 ) intersum [3:0] $end
$var wire 4 * carries [3:0] $end
$var wire 4 + Y [3:0] $end
$scope module one $end
$var wire 1 , A $end
$var wire 1 - B $end
$var wire 1 . Cin $end
$var wire 1 / Cout $end
$var wire 1 0 Sum $end
$var wire 1 1 Y $end
$upscope $end
$scope module realone $end
$var wire 1 2 A $end
$var wire 1 3 B $end
$var wire 1 4 Cin $end
$var wire 1 5 Cout $end
$var wire 1 6 Sum $end
$var wire 1 7 Y $end
$upscope $end
$scope module realthree $end
$var wire 1 8 A $end
$var wire 1 9 B $end
$var wire 1 : Cin $end
$var wire 1 ; Cout $end
$var wire 1 < Sum $end
$var wire 1 = Y $end
$upscope $end
$scope module realtwo $end
$var wire 1 > A $end
$var wire 1 ? B $end
$var wire 1 @ Cin $end
$var wire 1 A Cout $end
$var wire 1 B Sum $end
$var wire 1 C Y $end
$upscope $end
$scope module realzero $end
$var wire 1 D A $end
$var wire 1 E B $end
$var wire 1 F Cin $end
$var wire 1 G Cout $end
$var wire 1 H Sum $end
$var wire 1 I Y $end
$upscope $end
$scope module three $end
$var wire 1 J A $end
$var wire 1 K B $end
$var wire 1 L Cin $end
$var wire 1 M Cout $end
$var wire 1 N Sum $end
$var wire 1 O Y $end
$upscope $end
$scope module two $end
$var wire 1 P A $end
$var wire 1 Q B $end
$var wire 1 R Cin $end
$var wire 1 S Cout $end
$var wire 1 T Sum $end
$var wire 1 U Y $end
$upscope $end
$scope module zero $end
$var wire 1 V A $end
$var wire 1 W B $end
$var wire 1 X Cin $end
$var wire 1 Y Cout $end
$var wire 1 Z Sum $end
$var wire 1 [ Y $end
$upscope $end
$upscope $end
$scope module sub $end
$var wire 1 \ A $end
$var wire 1 ] B $end
$var wire 1 ^ Bout $end
$var wire 1 _ Y $end
$upscope $end
$scope module twos $end
$var wire 8 ` A [7:0] $end
$var wire 8 a carry [7:0] $end
$var wire 8 b Y [7:0] $end
$scope begin genblk1[1] $end
$var parameter 2 c i $end
$scope module adder $end
$var wire 1 d A $end
$var wire 1 e B $end
$var wire 1 f Cin $end
$var wire 1 g Cout $end
$var wire 1 h Sum $end
$var wire 1 i Y $end
$upscope $end
$upscope $end
$scope begin genblk1[2] $end
$var parameter 3 j i $end
$scope module adder $end
$var wire 1 k A $end
$var wire 1 l B $end
$var wire 1 m Cin $end
$var wire 1 n Cout $end
$var wire 1 o Sum $end
$var wire 1 p Y $end
$upscope $end
$upscope $end
$scope begin genblk1[3] $end
$var parameter 3 q i $end
$scope module adder $end
$var wire 1 r A $end
$var wire 1 s B $end
$var wire 1 t Cin $end
$var wire 1 u Cout $end
$var wire 1 v Sum $end
$var wire 1 w Y $end
$upscope $end
$upscope $end
$scope begin genblk1[4] $end
$var parameter 4 x i $end
$scope module adder $end
$var wire 1 y A $end
$var wire 1 z B $end
$var wire 1 { Cin $end
$var wire 1 | Cout $end
$var wire 1 } Sum $end
$var wire 1 ~ Y $end
$upscope $end
$upscope $end
$scope begin genblk1[5] $end
$var parameter 4 !" i $end
$scope module adder $end
$var wire 1 "" A $end
$var wire 1 #" B $end
$var wire 1 $" Cin $end
$var wire 1 %" Cout $end
$var wire 1 &" Sum $end
$var wire 1 '" Y $end
$upscope $end
$upscope $end
$scope begin genblk1[6] $end
$var parameter 4 (" i $end
$scope module adder $end
$var wire 1 )" A $end
$var wire 1 *" B $end
$var wire 1 +" Cin $end
$var wire 1 ," Cout $end
$var wire 1 -" Sum $end
$var wire 1 ." Y $end
$upscope $end
$upscope $end
$scope begin genblk1[7] $end
$var parameter 4 /" i $end
$scope module adder $end
$var wire 1 0" A $end
$var wire 1 1" B $end
$var wire 1 2" Cin $end
$var wire 1 3" Cout $end
$var wire 1 4" Sum $end
$var wire 1 5" Y $end
$upscope $end
$upscope $end
$scope module lsb $end
$var wire 1 6" A $end
$var wire 1 7" B $end
$var wire 1 8" Cin $end
$var wire 1 9" Cout $end
$var wire 1 :" Sum $end
$var wire 1 ;" Y $end
$upscope $end
$upscope $end
$upscope $end
$upscope $end
$enddefinitions $end
$comment Show the parameter values. $end
$dumpall
b111 /"
b110 ("
b101 !"
b100 x
b11 q
b10 j
b1 c
$end
#0
$dumpvars
0;"
0:"
19"
08"
17"
16"
05"
14"
13"
12"
01"
10"
0."
1-"
1,"
1+"
0*"
1)"
0'"
1&"
1%"
1$"
0#"
1""
0~
1}
1|
1{
0z
1y
0w
1v
1u
1t
0s
1r
0p
1o
1n
1m
0l
1k
0i
1h
1g
1f
0e
1d
b0 b
b11111111 a
b0 `
0_
0^
0]
0\
0[
0Z
0Y
0X
0W
0V
0U
0T
0S
0R
0Q
0P
0O
0N
0M
0L
0K
0J
0I
0H
0G
0F
0E
0D
0C
0B
0A
0@
0?
0>
0=
0<
0;
0:
09
08
07
06
05
04
03
02
01
00
0/
0.
0-
0,
b0 +
b0 *
b0 )
bz000 (
b0 '
b0 &
b0 %
b0 $
bx #
b0 "
b0 !
$end
#2
b1 !
b1 %
1_
1\
b1 "
b1 $
#4
b11 !
b11 %
1^
0\
1]
b10 "
b10 $
#6
0^
b0 !
b0 %
0_
1\
b11 "
b11 $
#8
0\
0]
b0 "
b0 $
#10
1I
03"
1F
15"
1M
0$"
02"
0|
0,"
1L
1~
1."
0C
b1 +
0=
1S
0m
0t
0{
0+"
0B
0<
0g
0n
0u
b1 a
0%"
0>
08
1R
1i
0p
0w
b11010010000100 !
b11010010000100 %
b11010010 b
0'"
0U
b0 )
0O
b1110 *
1/
0h
0o
0v
0&"
1T
1N
0d
0k
0r
0""
1,
1P
1J
1-
b1110 &
b10 '
b101110 `
b10111000 "
b10111000 $
#12
13"
05"
12"
1,"
0."
1+"
1%"
1$"
1|
0~
1{
1u
1t
1n
0C
0=
b0 +
0I
1m
0B
0L
0<
0F
b11111111 a
1g
0>
0S
08
0M
0R
0i
0p
0w
b0 !
b0 %
b0 b
0'"
0U
b0 )
0O
b0 *
0/
1h
1o
1v
1&"
0T
0N
1d
1k
1r
1""
0,
0P
0J
0-
b0 &
b0 '
b0 `
b0 #
b0 "
b0 $
#14
b1 #
#16
03"
15"
02"
0,"
1."
0+"
0%"
1'"
0$"
0|
1~
0{
0u
1w
0t
0n
1p
0m
0g
b1 +
1I
1i
1H
0f
1D
b11111111000100 !
b11111111000100 %
b11111111 b
1;"
b0 a
09"
b1 )
1[
1:"
1Z
06"
1V
b1 &
b1 `
b10 #
b100 "
b100 $
#18
0I
b10 +
17
0H
16
1f
0D
12
1i
b11111110001000 !
b11111110001000 %
b11111110 b
0;"
b1 a
19"
0[
b10 )
11
0h
0:"
0Z
10
0d
16"
0V
1,
b10 &
b10 `
b11 #
b1000 "
b1000 $
#20
b11 +
1I
0i
1H
0f
1D
b11111101001100 !
b11111101001100 %
b11111101 b
1;"
b0 a
09"
b11 )
1[
1:"
1Z
06"
1V
b11 &
b11 `
b100 #
b1100 "
b1100 $
#22
1m
1g
0I
07
b100 +
1C
0H
06
1B
1f
0D
02
1>
0i
1p
b11111100010000 !
b11111100010000 %
b11111100 b
0;"
b11 a
19"
0[
01
b100 )
1U
1h
0o
0:"
0Z
00
1T
1d
0k
16"
0V
0,
1P
b100 &
b100 `
b101 #
b10000 "
b10000 $
#24
0p
0m
0g
b101 +
1I
1i
1H
0f
1D
b11111011010100 !
b11111011010100 %
b11111011 b
1;"
b0 a
09"
b101 )
1[
1:"
1Z
06"
1V
b101 &
b101 `
b110 #
b10100 "
b10100 $
#26
0I
b110 +
17
0H
16
1f
0D
12
1i
b11111010011000 !
b11111010011000 %
b11111010 b
0;"
b1 a
19"
0[
b110 )
11
0h
0:"
0Z
10
0d
16"
0V
1,
b110 &
b110 `
b111 #
b11000 "
b11000 $
#28
b111 +
1I
0i
1H
0f
1D
b11111001011100 !
b11111001011100 %
b11111001 b
1;"
b0 a
09"
b111 )
1[
1:"
1Z
06"
1V
b111 &
b111 `
b1000 #
b11100 "
b11100 $
#30
1t
1n
1m
1g
0I
07
0C
b1000 +
1=
0H
06
0B
1<
1f
0D
02
0>
18
0i
0p
1w
b11111000100000 !
b11111000100000 %
b11111000 b
0;"
b111 a
19"
0[
01
0U
b1000 )
1O
1h
1o
0v
0:"
0Z
00
0T
1N
1d
1k
0r
16"
0V
0,
0P
1J
b1000 &
b1000 `
b1001 #
b100000 "
b100000 $
#32
0w
0t
0n
1p
0m
0g
b1001 +
1I
1i
1H
0f
1D
b11110111100100 !
b11110111100100 %
b11110111 b
1;"
b0 a
09"
b1001 )
1[
1:"
1Z
06"
1V
b1001 &
b1001 `
b1010 #
b100100 "
b100100 $
#34
0I
b1010 +
17
0H
16
1f
0D
12
1i
b11110110101000 !
b11110110101000 %
b11110110 b
0;"
b1 a
19"
0[
b1010 )
11
0h
0:"
0Z
10
0d
16"
0V
1,
b1010 &
b1010 `
b1011 #
b101000 "
b101000 $
#36
b1011 +
1I
0i
1H
0f
1D
b11110101101100 !
b11110101101100 %
b11110101 b
1;"
b0 a
09"
b1011 )
1[
1:"
1Z
06"
1V
b1011 &
b1011 `
b1100 #
b101100 "
b101100 $
#38
1m
1g
0I
07
b1100 +
1C
0H
06
1B
1f
0D
02
1>
0i
1p
b11110100110000 !
b11110100110000 %
b11110100 b
0;"
b11 a
19"
0[
01
b1100 )
1U
1h
0o
0:"
0Z
00
1T
1d
0k
16"
0V
0,
1P
b1100 &
b1100 `
b1101 #
b110000 "
b110000 $
#40
0p
0m
0g
b1101 +
1I
1i
1H
0f
1D
b11110011110100 !
b11110011110100 %
b11110011 b
1;"
b0 a
09"
b1101 )
1[
1:"
1Z
06"
1V
b1101 &
b1101 `
b1110 #
b110100 "
b110100 $
#42
0I
b1110 +
17
0H
16
1f
0D
12
1i
b11110010111000 !
b11110010111000 %
b11110010 b
0;"
b1 a
19"
0[
b1110 )
11
0h
0:"
0Z
10
0d
16"
0V
1,
b1110 &
b1110 `
b1111 #
b111000 "
b111000 $
#44
b1111 +
1I
0i
1H
0f
1D
b11110001111100 !
b11110001111100 %
b11110001 b
1;"
b0 a
09"
b1111 )
1[
1:"
1Z
06"
1V
b1111 &
b1111 `
b10000 #
b111100 "
b111100 $
#46
1{
1u
1t
1n
1m
1g
07
0C
b1 +
0=
06
0B
0<
1f
02
0>
08
0i
0p
0w
1~
b11110000000100 !
b11110000000100 %
b11110000 b
0;"
b1111 a
19"
01
0U
b1 )
0O
1h
1o
1v
0}
0:"
00
0T
0N
1d
1k
1r
0y
16"
0V
0,
0P
0J
1W
b0 &
b1 '
b10000 `
b10001 #
b1000000 "
b1000000 $
#48
0~
0{
0u
1w
0t
0n
1p
17
0m
16
0g
b10 +
0I
12
1i
0H
11
0f
0D
1.
b11101111001000 !
b11101111001000 %
b11101111 b
1;"
b0 a
09"
b10 )
0[
b1 *
1Y
1:"
0Z
06"
1V
b1 &
b10001 `
b10010 #
b1000100 "
b1000100 $
#50
0C
0B
0>
1I
b11 +
17
0U
1H
16
0R
1f
1D
0.
12
0/
1i
b11101110001100 !
b11101110001100 %
b11101110 b
0;"
b1 a
19"
1[
b0 *
0Y
b11 )
11
0h
0:"
1Z
10
0d
16"
0V
1,
b10 &
b10010 `
b10011 #
b1001000 "
b1001000 $
#52
1C
1B
1>
07
1U
06
1R
b100 +
0I
02
1/
0i
0H
01
0f
0D
1.
b11101101010000 !
b11101101010000 %
b11101101 b
1;"
b0 a
09"
b100 )
0[
b11 *
1Y
1:"
0Z
06"
1V
b11 &
b10011 `
b10100 #
b1001100 "
b1001100 $
#54
0=
0<
1m
08
1g
1I
07
b101 +
1C
0O
1H
06
0R
1B
0L
1f
1D
0.
02
0/
1>
0S
0i
1p
b11101100010100 !
b11101100010100 %
b11101100 b
0;"
b11 a
19"
1[
b0 *
0Y
01
b101 )
1U
1h
0o
0:"
1Z
00
1T
1d
0k
16"
0V
0,
1P
b100 &
b10100 `
b10101 #
b1010000 "
b1010000 $
#56
0p
17
0m
16
0g
b110 +
0I
12
1i
0H
11
0f
0D
1.
b11101011011000 !
b11101011011000 %
b11101011 b
1;"
b0 a
09"
b110 )
0[
b1 *
1Y
1:"
0Z
06"
1V
b101 &
b10101 `
b10110 #
b1010100 "
b1010100 $
#58
0=
0<
08
1C
0O
1B
0L
1>
0S
1I
b111 +
17
1U
1H
16
0R
1f
1D
0.
12
0/
1i
b11101010011100 !
b11101010011100 %
b11101010 b
0;"
b1 a
19"
1[
b0 *
0Y
b111 )
11
0h
0:"
1Z
10
0d
16"
0V
1,
b110 &
b10110 `
b10111 #
b1011000 "
b1011000 $
#60
1=
1<
18
0C
1O
0B
1L
0>
1S
07
0U
06
1R
b1000 +
0I
02
1/
0i
0H
01
0f
0D
1.
b11101001100000 !
b11101001100000 %
b11101001 b
1;"
b0 a
09"
b1000 )
0[
b111 *
1Y
1:"
0Z
06"
1V
b111 &
b10111 `
b11000 #
b1011100 "
b1011100 $
#62
1t
1n
1I
04
1m
bz000 (
0G
1g
07
0C
b1001 +
1=
1H
06
0R
0B
0L
1<
0F
1f
1D
0.
02
0/
0>
0S
18
0M
0i
0p
1w
b11101000100100 !
b11101000100100 %
b11101000 b
0;"
b111 a
19"
1[
b0 *
0Y
01
0U
b1001 )
1O
1h
1o
0v
0:"
1Z
00
0T
1N
1d
1k
0r
16"
0V
0,
0P
1J
b1000 &
b11000 `
b11001 #
b1100000 "
b1100000 $
#64
0w
0t
0n
1p
17
0m
16
0g
b1010 +
0I
12
1i
0H
11
0f
0D
1.
b11100111101000 !
b11100111101000 %
b11100111 b
1;"
b0 a
09"
b1010 )
0[
b1 *
1Y
1:"
0Z
06"
1V
b1001 &
b11001 `
b11010 #
b1100100 "
b1100100 $
#66
0C
0B
0>
1I
b1011 +
17
0U
1H
16
0R
1f
1D
0.
12
0/
1i
b11100110101100 !
b11100110101100 %
b11100110 b
0;"
b1 a
19"
1[
b0 *
0Y
b1011 )
11
0h
0:"
1Z
10
0d
16"
0V
1,
b1010 &
b11010 `
b11011 #
b1101000 "
b1101000 $
#68
1C
1B
1>
07
1U
06
1R
b1100 +
0I
02
1/
0i
0H
01
0f
0D
1.
b11100101110000 !
b11100101110000 %
b11100101 b
1;"
b0 a
09"
b1100 )
0[
b11 *
1Y
1:"
0Z
06"
1V
b1011 &
b11011 `
b11100 #
b1101100 "
b1101100 $
#70
04
bz000 (
0G
1=
1<
0F
1m
18
0M
1g
1I
07
b1101 +
1C
1O
1H
06
0R
1B
0L
1f
1D
0.
02
0/
1>
0S
0i
1p
b11100100110100 !
b11100100110100 %
b11100100 b
0;"
b11 a
19"
1[
b0 *
0Y
01
b1101 )
1U
1h
0o
0:"
1Z
00
1T
1d
0k
16"
0V
0,
1P
b1100 &
b11100 `
b11101 #
b1110000 "
b1110000 $
#72
0p
17
0m
16
0g
b1110 +
0I
12
1i
0H
11
0f
0D
1.
b11100011111000 !
b11100011111000 %
b11100011 b
1;"
b0 a
09"
b1110 )
0[
b1 *
1Y
1:"
0Z
06"
1V
b1101 &
b11101 `
b11110 #
b1110100 "
b1110100 $
#74
0;
0:
0A
0@
05
04
bz000 (
0G
1=
1<
0F
18
0M
1C
1O
1B
0L
1>
0S
1I
b1111 +
17
1U
1H
16
0R
1f
1D
0.
12
0/
1i
b11100010111100 !
b11100010111100 %
b11100010 b
0;"
b1 a
19"
1[
b0 *
0Y
b1111 )
11
0h
0:"
1Z
10
0d
16"
0V
1,
b1110 &
b11110 `
b11111 #
b1111000 "
b1111000 $
#76
0=
0<
1F
08
1M
0C
0O
0B
1L
0>
1S
07
0U
06
1R
b1 +
1I
02
1/
0i
0H
01
0f
0D
1.
b11100001000100 !
b11100001000100 %
b11100001 b
1;"
b0 a
09"
b0 )
0[
b1111 *
1Y
1:"
0Z
06"
1V
b1111 &
b11111 `
b100000 #
b1111100 "
b1111100 $
#78
1$"
1|
1{
1u
1t
1n
17
1m
16
0R
1g
0C
0=
b10 +
0I
12
0/
0B
0L
0<
0F
11
1f
0>
0S
08
0M
0.
0i
0p
0w
0~
1'"
b11100000001000 !
b11100000001000 %
b11100000 b
0;"
b11111 a
19"
0U
b10 )
0O
b0 *
0Y
1h
1o
1v
1}
0&"
0:"
0T
0N
1d
1k
1r
1y
0""
16"
0V
0,
0P
0J
0W
1-
b0 &
b10 '
b100000 `
b100001 #
b10000000 "
b10000000 $
#80
0'"
0$"
0|
1~
0{
0u
1w
0t
0n
1p
0m
0g
b11 +
1I
1i
1H
0f
1D
b11011111001100 !
b11011111001100 %
b11011111 b
1;"
b0 a
09"
b11 )
1[
1:"
1Z
06"
1V
b1 &
b100001 `
b100010 #
b10000100 "
b10000100 $
#82
1C
1B
0I
b100 +
07
1>
0H
06
1U
1f
0D
02
1R
1i
b11011110010000 !
b11011110010000 %
b11011110 b
0;"
b1 a
19"
0[
b100 )
01
b10 *
1/
0h
0:"
0Z
00
0d
16"
0V
1,
b10 &
b100010 `
b100011 #
b10001000 "
b10001000 $
#84
b101 +
1I
0i
1H
0f
1D
b11011101010100 !
b11011101010100 %
b11011101 b
1;"
b0 a
09"
b101 )
1[
1:"
1Z
06"
1V
b11 &
b100011 `
b100100 #
b10001100 "
b10001100 $
#86
0=
0<
1m
08
1g
0I
17
b110 +
1C
0O
0H
16
1B
0L
1f
0D
12
0R
1>
0S
0i
1p
b11011100011000 !
b11011100011000 %
b11011100 b
0;"
b11 a
19"
0[
11
b0 *
0/
b110 )
1U
1h
0o
0:"
0Z
10
1T
1d
0k
16"
0V
0,
1P
b100 &
b100100 `
b100101 #
b10010000 "
b10010000 $
#88
0p
0m
0g
b111 +
1I
1i
1H
0f
1D
b11011011011100 !
b11011011011100 %
b11011011 b
1;"
b0 a
09"
b111 )
1[
1:"
1Z
06"
1V
b101 &
b100101 `
b100110 #
b10010100 "
b10010100 $
#90
1=
1<
18
0C
1O
0B
1L
0I
b1000 +
07
0>
1S
0H
06
0U
1f
0D
02
1R
1i
b11011010100000 !
b11011010100000 %
b11011010 b
0;"
b1 a
19"
0[
b1000 )
01
b110 *
1/
0h
0:"
0Z
00
0d
16"
0V
1,
b110 &
b100110 `
b100111 #
b10011000 "
b10011000 $
#92
b1001 +
1I
0i
1H
0f
1D
b11011001100100 !
b11011001100100 %
b11011001 b
1;"
b0 a
09"
b1001 )
1[
1:"
1Z
06"
1V
b111 &
b100111 `
b101000 #
b10011100 "
b10011100 $
#94
1t
1n
0I
1m
1g
17
0C
b1010 +
1=
0H
16
0B
0L
1<
0F
1f
0D
12
0R
0>
0S
18
0M
0i
0p
1w
b11011000101000 !
b11011000101000 %
b11011000 b
0;"
b111 a
19"
0[
11
b0 *
0/
0U
b1010 )
1O
1h
1o
0v
0:"
0Z
10
0T
1N
1d
1k
0r
16"
0V
0,
0P
1J
b1000 &
b101000 `
b101001 #
b10100000 "
b10100000 $
#96
0w
0t
0n
1p
0m
0g
b1011 +
1I
1i
1H
0f
1D
b11010111101100 !
b11010111101100 %
b11010111 b
1;"
b0 a
09"
b1011 )
1[
1:"
1Z
06"
1V
b1001 &
b101001 `
b101010 #
b10100100 "
b10100100 $
#98
1C
1B
0I
b1100 +
07
1>
0H
06
1U
1f
0D
02
1R
1i
b11010110110000 !
b11010110110000 %
b11010110 b
0;"
b1 a
19"
0[
b1100 )
01
b10 *
1/
0h
0:"
0Z
00
0d
16"
0V
1,
b1010 &
b101010 `
b101011 #
b10101000 "
b10101000 $
#100
b1101 +
1I
0i
1H
0f
1D
b11010101110100 !
b11010101110100 %
b11010101 b
1;"
b0 a
09"
b1101 )
1[
1:"
1Z
06"
1V
b1011 &
b101011 `
b101100 #
b10101100 "
b10101100 $
#102
1=
1<
0F
1m
18
0M
1g
0I
17
b1110 +
1C
1O
0H
16
1B
0L
1f
0D
12
0R
1>
0S
0i
1p
b11010100111000 !
b11010100111000 %
b11010100 b
0;"
b11 a
19"
0[
11
b0 *
0/
b1110 )
1U
1h
0o
0:"
0Z
10
1T
1d
0k
16"
0V
0,
1P
b1100 &
b101100 `
b101101 #
b10110000 "
b10110000 $
#104
0p
0m
0g
b1111 +
1I
1i
1H
0f
1D
b11010011111100 !
b11010011111100 %
b11010011 b
1;"
b0 a
09"
b1111 )
1[
1:"
1Z
06"
1V
b1101 &
b101101 `
b101110 #
b10110100 "
b10110100 $
#106
0=
0<
1F
08
1M
0C
0O
0B
1L
1I
b1 +
07
0>
1S
0H
06
0U
1f
0D
02
1R
1i
b11010010000100 !
b11010010000100 %
b11010010 b
0;"
b1 a
19"
0[
b0 )
01
b1110 *
1/
0h
0:"
0Z
00
0d
16"
0V
1,
b1110 &
b101110 `
b101111 #
b10111000 "
b10111000 $
#108
17
14
bz001 (
1G
b10 +
0I
0i
1H
0f
1D
b11010001001000 !
b11010001001000 %
b11010001 b
1;"
b0 a
09"
b1 )
1[
1:"
1Z
06"
1V
b1111 &
b101111 `
b110000 #
b10111100 "
b10111100 $
#110
1{
1u
1t
1n
0@
04
1m
05
bz000 (
0G
1g
17
0C
0=
b11 +
1I
16
0B
0L
0<
0F
1f
12
0R
0>
0S
08
0M
0i
0p
0w
1~
b11010000001100 !
b11010000001100 %
b11010000 b
0;"
b1111 a
19"
11
b0 *
0/
0U
b11 )
0O
1h
1o
1v
0}
0:"
10
0T
0N
1d
1k
1r
0y
16"
0V
0,
0P
0J
1W
b0 &
b11 '
b110000 `
b110001 #
b11000000 "
b11000000 $
#112
0~
0{
0u
1w
1C
0t
1B
0n
1>
1p
07
1U
0m
06
1R
0g
b100 +
0I
02
1/
1i
0H
01
0f
0D
1.
b11001111010000 !
b11001111010000 %
b11001111 b
1;"
b0 a
09"
b100 )
0[
b11 *
1Y
1:"
0Z
06"
1V
b1 &
b110001 `
b110010 #
b11000100 "
b11000100 $
#114
1I
b101 +
07
1H
06
1f
1D
0.
02
1i
b11001110010100 !
b11001110010100 %
b11001110 b
0;"
b1 a
19"
1[
b10 *
0Y
b101 )
01
0h
0:"
1Z
00
0d
16"
0V
1,
b10 &
b110010 `
b110011 #
b11001000 "
b11001000 $
#116
17
16
b110 +
0I
12
0i
0H
11
0f
0D
1.
b11001101011000 !
b11001101011000 %
b11001101 b
1;"
b0 a
09"
b110 )
0[
b11 *
1Y
1:"
0Z
06"
1V
b11 &
b110011 `
b110100 #
b11001100 "
b11001100 $
#118
0=
0<
1m
08
1g
1I
17
b111 +
1C
0O
1H
16
1B
0L
1f
1D
0.
12
0R
1>
0S
0i
1p
b11001100011100 !
b11001100011100 %
b11001100 b
0;"
b11 a
19"
1[
0Y
11
b0 *
0/
b111 )
1U
1h
0o
0:"
1Z
10
1T
1d
0k
16"
0V
0,
1P
b100 &
b110100 `
b110101 #
b11010000 "
b11010000 $
#120
1=
1<
18
0C
1O
0B
1L
0>
1S
0p
07
0U
0m
06
1R
0g
b1000 +
0I
02
1/
1i
0H
01
0f
0D
1.
b11001011100000 !
b11001011100000 %
b11001011 b
1;"
b0 a
09"
b1000 )
0[
b111 *
1Y
1:"
0Z
06"
1V
b101 &
b110101 `
b110110 #
b11010100 "
b11010100 $
#122
1I
b1001 +
07
1H
06
1f
1D
0.
02
1i
b11001010100100 !
b11001010100100 %
b11001010 b
0;"
b1 a
19"
1[
b110 *
0Y
b1001 )
01
0h
0:"
1Z
00
0d
16"
0V
1,
b110 &
b110110 `
b110111 #
b11011000 "
b11011000 $
#124
17
16
b1010 +
0I
12
0i
0H
11
0f
0D
1.
b11001001101000 !
b11001001101000 %
b11001001 b
1;"
b0 a
09"
b1010 )
0[
b111 *
1Y
1:"
0Z
06"
1V
b111 &
b110111 `
b111000 #
b11011100 "
b11011100 $
#126
1t
0@
1n
05
1I
04
1m
bz000 (
0G
1g
17
0C
b1011 +
1=
1H
16
0B
0L
1<
0F
1f
1D
0.
12
0R
0>
0S
18
0M
0i
0p
1w
b11001000101100 !
b11001000101100 %
b11001000 b
0;"
b111 a
19"
1[
0Y
11
b0 *
0/
0U
b1011 )
1O
1h
1o
0v
0:"
1Z
10
0T
1N
1d
1k
0r
16"
0V
0,
0P
1J
b1000 &
b111000 `
b111001 #
b11100000 "
b11100000 $
#128
0w
1C
0t
1B
0n
1>
1p
07
1U
0m
06
1R
0g
b1100 +
0I
02
1/
1i
0H
01
0f
0D
1.
b11000111110000 !
b11000111110000 %
b11000111 b
1;"
b0 a
09"
b1100 )
0[
b11 *
1Y
1:"
0Z
06"
1V
b1001 &
b111001 `
b111010 #
b11100100 "
b11100100 $
#130
1I
b1101 +
07
1H
06
1f
1D
0.
02
1i
b11000110110100 !
b11000110110100 %
b11000110 b
0;"
b1 a
19"
1[
b10 *
0Y
b1101 )
01
0h
0:"
1Z
00
0d
16"
0V
1,
b1010 &
b111010 `
b111011 #
b11101000 "
b11101000 $
#132
17
16
b1110 +
0I
12
0i
0H
11
0f
0D
1.
b11000101111000 !
b11000101111000 %
b11000101 b
1;"
b0 a
09"
b1110 )
0[
b11 *
1Y
1:"
0Z
06"
1V
b1011 &
b111011 `
b111100 #
b11101100 "
b11101100 $
#134
0;
0:
0A
0@
05
04
bz000 (
0G
1=
1<
0F
1m
18
0M
1g
1I
17
b1111 +
1C
1O
1H
16
1B
0L
1f
1D
0.
12
0R
1>
0S
0i
1p
b11000100111100 !
b11000100111100 %
b11000100 b
0;"
b11 a
19"
1[
0Y
11
b0 *
0/
b1111 )
1U
1h
0o
0:"
1Z
10
1T
1d
0k
16"
0V
0,
1P
b1100 &
b111100 `
b111101 #
b11110000 "
b11110000 $
#136
0=
0<
1F
08
1M
0C
0O
0B
1L
0>
1S
0p
07
0U
0m
06
1R
0g
b1 +
1I
02
1/
1i
0H
01
0f
0D
1.
b11000011000100 !
b11000011000100 %
b11000011 b
1;"
b0 a
09"
b0 )
0[
b1111 *
1Y
1:"
0Z
06"
1V
b1101 &
b111101 `
b111110 #
b11110100 "
b11110100 $
#138
14
bz001 (
1G
0I
b10 +
17
1H
06
1f
1D
0.
02
1i
b11000010001000 !
b11000010001000 %
b11000010 b
0;"
b1 a
19"
1[
b1110 *
0Y
b1 )
01
0h
0:"
1Z
00
0d
16"
0V
1,
b1110 &
b111110 `
b111111 #
b11111000 "
b11111000 $
#140
0C
0@
05
04
17
bz000 (
0G
16
b11 +
1I
12
0i
0H
11
0f
0D
1.
b11000001001100 !
b11000001001100 %
b11000001 b
1;"
b0 a
09"
b10 )
0[
b1111 *
1Y
1:"
0Z
06"
1V
b1111 &
b111111 `
b1000000 #
b11111100 "
b11111100 $
#142
1+"
1%"
1$"
1|
1{
1u
1t
1n
07
1C
1m
06
1B
0L
1g
0=
b100 +
0I
02
1>
0S
0<
0F
01
1U
1f
08
0M
0.
0R
0i
0p
0w
0~
0'"
1."
b11000000010000 !
b11000000010000 %
b11000000 b
0;"
b111111 a
19"
b100 )
0O
0Y
b0 *
0/
1h
1o
1v
1}
1&"
0-"
0:"
0N
1d
1k
1r
1y
1""
0)"
16"
0V
0,
0P
0J
0W
0-
1Q
b0 &
b100 '
b1000000 `
b1000001 #
b100000000 "
b100000000 $
#144
0."
0+"
0%"
1'"
0$"
0|
1~
0{
0u
1w
0t
0n
1p
0m
0g
b101 +
1I
1i
1H
0f
1D
b10111111010100 !
b10111111010100 %
b10111111 b
1;"
b0 a
09"
b101 )
1[
1:"
1Z
06"
1V
b1 &
b1000001 `
b1000010 #
b100000100 "
b100000100 $
#146
0I
b110 +
17
0H
16
1f
0D
12
1i
b10111110011000 !
b10111110011000 %
b10111110 b
0;"
b1 a
19"
0[
b110 )
11
0h
0:"
0Z
10
0d
16"
0V
1,
b10 &
b1000010 `
b1000011 #
b100001000 "
b100001000 $
#148
b111 +
1I
0i
1H
0f
1D
b10111101011100 !
b10111101011100 %
b10111101 b
1;"
b0 a
09"
b111 )
1[
1:"
1Z
06"
1V
b11 &
b1000011 `
b1000100 #
b100001100 "
b100001100 $
#150
1=
1m
1<
1g
0I
07
b1000 +
0C
18
0H
06
0B
1O
1f
0D
02
0>
1L
0i
1p
b10111100100000 !
b10111100100000 %
b10111100 b
0;"
b11 a
19"
0[
01
b1000 )
0U
b100 *
1S
1h
0o
0:"
0Z
00
0T
1d
0k
16"
0V
0,
1P
b100 &
b1000100 `
b1000101 #
b100010000 "
b100010000 $
#152
0p
0m
0g
b1001 +
1I
1i
1H
0f
1D
b10111011100100 !
b10111011100100 %
b10111011 b
1;"
b0 a
09"
b1001 )
1[
1:"
1Z
06"
1V
b101 &
b1000101 `
b1000110 #
b100010100 "
b100010100 $
#154
0I
b1010 +
17
0H
16
1f
0D
12
1i
b10111010101000 !
b10111010101000 %
b10111010 b
0;"
b1 a
19"
0[
b1010 )
11
0h
0:"
0Z
10
0d
16"
0V
1,
b110 &
b1000110 `
b1000111 #
b100011000 "
b100011000 $
#156
b1011 +
1I
0i
1H
0f
1D
b10111001101100 !
b10111001101100 %
b10111001 b
1;"
b0 a
09"
b1011 )
1[
1:"
1Z
06"
1V
b111 &
b1000111 `
b1001000 #
b100011100 "
b100011100 $
#158
1t
1n
0I
1m
1g
07
1C
b1100 +
1=
0H
06
1B
1<
0F
1f
0D
02
1>
0L
18
0M
0i
0p
1w
b10111000110000 !
b10111000110000 %
b10111000 b
0;"
b111 a
19"
0[
01
1U
b0 *
0S
b1100 )
1O
1h
1o
0v
0:"
0Z
00
1T
1N
1d
1k
0r
16"
0V
0,
0P
1J
b1000 &
b1001000 `
b1001001 #
b100100000 "
b100100000 $
